Surveys: Design and Analysis
…
\[fpc = \sqrt{\frac{N-n}{N-1}} \simeq \sqrt{1 - \frac{n}{N}}\]

set.seed(as.numeric(Sys.time()))

data("api", package = "survey")

apisrs_slim <-
  apisrs %>%
  as_tibble() %>%
  arrange(dnum, snum) %>%
  select(cds, dnum, snum, dname, sname, fpc, pw)

apisrs_slim

# A tibble: 200 × 7
   cds             dnum  snum dname                   sname            fpc    pw
   <chr>          <int> <dbl> <chr>                   <chr>          <dbl> <dbl>
 1 19642126061220     1  1121 ABC Unified             Haskell (Plin…  6194  31.0
 2 19642126066716     1  1124 ABC Unified             Stowers (Ceci…  6194  31.0
 3 36675876035174     5  3895 Adelanto Elementary     Adelanto Elem…  6194  31.0
 4 33669776031512    19  3347 Alvord Unified          Arlanza Eleme…  6194  31.0
 5 33669776031595    19  3352 Alvord Unified          Wells Interme…  6194  31.0
 6 31667876031033    39  3271 Auburn Union Elementary Cain (E.V.) M…  6194  31.0
 7 19642876011407    42  1169 Baldwin Park Unified    Deanza Elemen…  6194  31.0
 8 19642876011464    42  1175 Baldwin Park Unified    Heath (Margar…  6194  31.0
 9 19642956011589    48  1187 Bassett Unified         Erwin (Thomas…  6194  31.0
10 41688586043392    49  4948 Bayshore Elementary     Bayshore Elem…  6194  31.0
# ℹ 190 more rows
…
